MM01   7C            -2282534.1486          -2278474.3121           5485738.5948           -0.358688953           -0.358050970            0.862056691
MM02   7C            -2268136.6042          -2280943.2809           5490671.0244           -0.356426983           -0.358439492            0.862833087
MM03   7C            -2247903.9418          -2274313.4111           5501592.1638           -0.353254164           -0.357404366            0.864565564
MM04   7C            -2227003.9387          -2262192.2073           5514890.7520           -0.349978451           -0.355508363            0.866676923
MM05   7C            -2197785.8424          -2276955.2120           5520429.8110           -0.345391657           -0.357833469            0.867559688
MM06   7C            -2161158.8885          -2292884.9890           5528301.0563           -0.339635114           -0.360336419            0.868795519
MM07   7C            -2135576.6157          -2284459.4406           5541671.8022           -0.335616714           -0.359014406            0.870901876
MM08   7C            -2107836.2511          -2254154.1512           5564658.2910           -0.331257021           -0.354251611            0.874513912
MM09   7C            -2091771.4899          -2241502.6116           5575829.9259           -0.328731897           -0.352262859            0.876268348
MM10   7C            -2079950.3731          -2223414.4832           5587453.1161           -0.326875457           -0.349421619            0.878098495
MM11   7C            -2053853.9228          -2209073.1926           5602631.8697           -0.322780611           -0.347174640            0.880501247
MM12   7C            -2030278.4841          -2218713.5722           5607290.3706           -0.319080962           -0.348695642            0.881248370
MM13   7C            -2033471.8881          -2215276.4449           5607508.5983           -0.319582113           -0.348154667            0.881280660
MM14   7C            -2027538.8621          -2218439.1763           5608370.9798           -0.318651244           -0.348653442            0.881420536
MM15   7C            -2033366.3343          -2212702.7810           5608557.9959           -0.319565742           -0.347750425            0.881446186
MM16   7C            -2016524.6767          -2219857.0539           5611705.0162           -0.316923529           -0.348879902            0.881953679
MM17   7C            -2002001.7101          -2227486.8961           5613798.7575           -0.314644647           -0.350083032            0.882292818
MM18   7C            -1982915.9046          -2222918.8032           5622273.7343           -0.311649490           -0.349370092            0.883637445
MM19   7C            -1964912.6394          -2221351.5502           5629162.2762           -0.308822000           -0.349126070            0.884725924
MM20   7C            -1949410.5146          -2214380.0828           5637270.4622           -0.306386516           -0.348031466            0.886003048
MM21   7C            -1929682.2101          -2211467.4006           5645189.4881           -0.303286115           -0.347573996            0.887248471
MM22   7C            -1922183.3762          -2210377.4091           5648175.5835           -0.302107461           -0.347402603            0.887717586
MM23   7C            -1906424.9362          -2207360.2619           5654703.9502           -0.299630253           -0.346927855            0.888742243
MM24   7C            -1893459.5135          -2212378.1875           5657147.8651           -0.297590451           -0.347714128            0.889120244
MM25   7C            -1882512.9959          -2210459.7313           5661575.9208           -0.295868913           -0.347411316            0.889812881
MM26   7C            -1868910.2333          -2212120.4104           5665479.6072           -0.293729077           -0.347670036            0.890420561
MM27   7C            -1863185.7028          -2204743.5135           5670228.9788           -0.292829773           -0.346511108            0.891168209
MM28   7C            -1830781.9922          -2204482.8942           5680912.2324           -0.287735514           -0.346468352            0.892842626
MM41   7C            -1850812.3865          -2204743.1085           5674304.3059           -0.290884113           -0.346509862            0.891805667
ANM    AK            -2657879.4208           -693653.4648           5737286.1549           -0.417841887           -0.109048390            0.901951554
BAGL   AK            -2485576.2344          -1935560.5854           5528737.0673           -0.390612014           -0.304176234            0.868849281
BAL    AK            -2452151.1062          -1892081.3084           5558624.6623           -0.385359647           -0.297343742            0.873547161
BARK   AK            -2505613.7141          -1923104.4788           5523695.0318           -0.393779314           -0.302232846            0.868097436
BARN   AK            -2427794.2263          -1919958.3968           5560356.8365           -0.381500510           -0.301699831            0.873747431
BCP    AK            -2439760.7516          -2073691.2724           5498709.9077           -0.383426147           -0.325895666            0.864162256
BERG   AK            -2546226.0170          -1870361.5880           5522903.6609           -0.400179952           -0.293957098            0.868012230
BESE   AK            -2351126.0243          -2362982.1230           5420171.2135           -0.369490644           -0.371353887            0.851805702
BGLC   AK            -2553574.8509          -1904478.6063           5507519.8034           -0.401351924           -0.299331798            0.865631046
BMR    AK            -2530016.2125          -1797650.0194           5554422.3250           -0.397631583           -0.282528791            0.872964264
BPAW   AK            -2443132.4100          -1354958.4246           5715022.1525           -0.384061107           -0.212999848            0.898403101
BRLK   AK            -2814812.9482          -1566299.4253           5487027.5361           -0.442392922           -0.246169032            0.862374229
BRSE   AK            -2811104.6008          -1574848.5414           5486542.7066           -0.441806435           -0.247510612            0.862290885
BWN    AK            -2395869.0101          -1422613.8192           5718727.0133           -0.376623978           -0.223630956            0.898968061
CAPN   AK            -2735221.2912          -1506567.7819           5542977.2854           -0.429927138           -0.236805108            0.871255414
CAST   AK            -2528870.1264          -1339849.5000           5681644.0455           -0.397513691           -0.210611259            0.893098966
CCB    AK            -2317735.4382          -1459256.5006           5741311.1747           -0.364359046           -0.229402070            0.902561453
CHI    AK            -3270930.2861          -1482211.2560           5253236.1475           -0.514025180           -0.232928813            0.825543628
CHN    AK            -3450698.1526          -1284023.0238           5190556.7318           -0.542238881           -0.201769954            0.815638328
CHUM   AK            -2493125.5884          -1308076.6059           5704406.0358           -0.391916652           -0.205628231            0.896726474
CHX    AK            -2484300.2404          -2003303.6118           5504828.1437           -0.390427456           -0.314835027            0.865127336
CNP    AK            -2842786.1329          -1560425.7575           5474158.4016           -0.446795786           -0.245249421            0.860364020
COLD   AK            -2148817.2379          -1230449.9842           5859045.4521           -0.337821603           -0.193442504            0.921117019
CRQ    AK            -2498575.2635          -1876488.0411           5543010.7472           -0.392666292           -0.294901504            0.871117837
CTG    AK            -2424235.8969          -1939395.0838           5555409.8962           -0.380928383           -0.304743707            0.872940341
CUT    AK            -2572247.5299          -1469416.1815           5630142.1656           -0.404318797           -0.230970222            0.884974048
CYK    AK            -2529816.2454          -1942094.3648           5505505.4918           -0.397609208           -0.305237427            0.865295921
DCPH   AK            -2449173.5512          -2188629.6308           5449574.6758           -0.384915057           -0.343967662            0.856461702
DHY    AK            -2439363.0441          -1561483.8458           5664901.3962           -0.383404399           -0.245424631            0.890375099
DIV    AK            -2553213.9181          -1736797.9678           5563236.8673           -0.401273312           -0.272962116            0.874340559
DOT    AK            -2298964.1405          -1666026.0470           5693397.7239           -0.361355980           -0.261869450            0.894900132
EYAK   AK            -2598905.7067          -1769531.9110           5531184.3176           -0.408481755           -0.278125327            0.869361236
FALS   AK            -3526637.6074          -1050156.8601           5192374.0076           -0.554152506           -0.165014702            0.815895305
FID    AK            -2610269.1105          -1721240.3329           5540858.7878           -0.410279270           -0.270542690            0.870906179
FIRE   AK            -2678589.9338          -1533024.9105           5563290.9246           -0.421028649           -0.240965367            0.874454441
FYU    AK            -2089698.1096          -1450528.9111           5829626.8787           -0.328545242           -0.228054172            0.916542044
GAMB   AK            -2796421.1748           -407774.2886           5698854.5487           -0.439614997           -0.064104683            0.895895778
GCSA   AK            -2509463.3600          -1071453.7462           5745977.2968           -0.394510833           -0.168442431            0.903320735
GHO    AK            -2591040.9764          -1561412.6452           5597492.1830           -0.407226166           -0.245402559            0.879741117
GLB    AK            -2467708.8661          -1805276.4671           5580253.4832           -0.387821268           -0.283714428            0.876983915
GLI    AK            -2612802.6064          -1690563.0403           5549238.2303           -0.410669890           -0.265715954            0.872207127
GOAT   AK            -2564503.7918          -1813808.4350           5533044.1420           -0.403066664           -0.285078820            0.869636321
GRIN   AK            -2542505.6730          -1893676.1029           5516621.3590           -0.399597850           -0.297623289            0.867030528
GRNC   AK            -2455909.6270          -1935679.9573           5542337.1444           -0.385928740           -0.304178346            0.870938885
HDA    AK            -2315619.0924          -1506781.7828           5730121.6813           -0.364013768           -0.236865086            0.900771285
HIN    AK            -2634172.3038          -1743289.2160           5522536.3417           -0.414041261           -0.274011561            0.868036577
HMT    AK            -2568899.0850          -1848505.5597           5519456.6333           -0.403760178           -0.290534158            0.867506554
HOM    AK            -2842771.0372          -1533779.9333           5481509.6913           -0.446804424           -0.241067483            0.861540640
ISLE   AK            -2485294.6900          -1918042.4762           5534901.3435           -0.390571184           -0.301425873            0.869825611
JIS    AK            -2351751.7111          -2402804.6069           5402460.7066           -0.369584165           -0.377607266            0.849011365
KAI    AK            -2605795.6503          -1864273.4948           5496321.6249           -0.409586514           -0.293031912            0.863927766
KHIT   AK            -2527704.2953          -1887457.6070           5525779.9596           -0.397258935           -0.296636517            0.868442350
KIAG   AK            -2461321.4439          -1898177.2983           5552486.8092           -0.386800947           -0.298301865            0.872582962
KLU    AK            -2528321.2728          -1710341.7144           5582773.3793           -0.397360776           -0.268803936            0.877410313
KNK    AK            -2608121.0150          -1600858.2613           5578522.0316           -0.409902845           -0.251597358            0.876743080
KOTZ   AK            -2395137.7507           -750590.6732           5844022.8744           -0.376579674           -0.118012916            0.918836602
KTH    AK            -2489667.5276          -1384405.3633           5688628.7361           -0.391331799           -0.217604092            0.894152047
LOGN   AK            -2423558.1751          -1962222.5604           5547881.4849           -0.380811602           -0.308322336            0.871733825
MCAR   AK            -2447221.5803          -1842507.0598           5577247.4602           -0.384594034           -0.289559895            0.876494436
MCK    AK            -2424878.1200          -1460627.7792           5697514.8868           -0.381149819           -0.229585977            0.895552955
MDM    AK            -2301514.5824          -1425226.1117           5756228.4310           -0.361816099           -0.224056695            0.904924145
MESA   AK            -2504356.7374          -1960153.9082           5511187.3978           -0.393583933           -0.308057184            0.866136513
MLY    AK            -2355592.0989          -1319508.2195           5759549.5460           -0.370317862           -0.207437214            0.905447118
NEA2   AK            -2353873.6055          -1410472.2621           5738737.3938           -0.370043436           -0.221734931            0.902164883
NICH   AK            -2567150.0616          -1867252.9731           5513973.9970           -0.403484355           -0.293480063            0.866642849
NIKH   AK            -3776084.7332           -743918.7313           5068200.8653           -0.593362595           -0.116897151            0.796401837
PAX    AK            -2394689.1831          -1647677.2220           5659532.6180           -0.376383508           -0.258972453            0.889532868
PIN    AK            -2451422.0297          -2038645.2361           5506862.4585           -0.385246243           -0.320377482            0.865415277
PNL    AK            -2451989.7668          -2101505.4808           5482281.3345           -0.385369209           -0.330285026            0.861627747
PPD    AK            -2185254.2756          -1500502.6366           5782606.6511           -0.343526421           -0.235882069            0.909037539
PPLA   AK            -2577437.8027          -1359538.2443           5655649.9029           -0.405115796           -0.213689121            0.888942153
PTPK   AK            -2444438.6537          -1877908.0215           5566738.3117           -0.384152036           -0.295119777            0.874832287
PWL    AK            -2650523.4715          -1634862.9626           5548311.6546           -0.416583124           -0.256951628            0.872028876
RAG    AK            -2578154.9930          -1826969.4238           5522235.3057           -0.405219124           -0.287152228            0.867952222
RC01   AK            -2670340.9630          -1557983.9273           5560591.4412           -0.419716515           -0.244879434            0.873997775
RDOG   AK            -2285109.8544           -702642.3400           5893791.2588           -0.359282417           -0.110474793            0.926666858
RIDG   AK            -2313850.5727          -1629449.4208           5697959.6014           -0.363695425           -0.256119953            0.895616105
RKAV   AK            -2474657.2755          -1979186.9614           5518313.4755           -0.388888997           -0.311026517            0.867195395
RND    AK            -2450839.4869          -1480763.8443           5681457.1313           -0.385215814           -0.232742149            0.892994887
SAMH   AK            -2467683.4276          -2013827.3382           5508734.9598           -0.387801544           -0.316477123            0.865709069
SAW    AK            -2571820.1844          -1586429.7161           5599663.7854           -0.404186167           -0.249322620            0.880040780
SCM    AK            -2541642.5980          -1629889.4913           5601074.1647           -0.399437226           -0.256148735            0.880248674
SCRK   AK            -2270097.5711          -1649897.5800           5709469.0438           -0.356827994           -0.259341119            0.897449701
SGA    AK            -2583253.8324          -1794859.9444           5530456.6980           -0.406016063           -0.282102347            0.869234849
SII    AK            -3171391.3318          -1534189.5412           5299116.9610           -0.498384674           -0.241098141            0.832757109
SKN    AK            -2641068.8288          -1432091.9495           5608009.8836           -0.415127425           -0.225098505            0.881475969
SLK    AK            -2732186.2809          -1563275.3407           5529305.0469           -0.429417696           -0.245699973            0.869040831
SPIA   AK            -3415342.5943           -587004.3407           5336679.5244           -0.536740303           -0.092251035            0.838689211
SSN    AK            -2665282.7392          -1492831.7135           5580456.0035           -0.418944476           -0.234651878            0.877168183
SSP    AK            -2534254.5544          -1920900.3693           5510924.3986           -0.398305295           -0.301905263            0.866144390
SUCK   AK            -2573643.5023          -1885071.2624           5504686.4720           -0.404515409           -0.296288267            0.865205494
SWD    AK            -2744888.8256          -1619923.2951           5506839.9658           -0.431403677           -0.254597148            0.865488972
TABL   AK            -2457150.8979          -1979536.0199           5526363.1445           -0.386119063           -0.311066200            0.868418038
TGL    AK            -2489789.7626          -1887854.1158           5543124.1740           -0.391284544           -0.296686953            0.871133318
TNA    AK            -2587708.1665           -553495.3871           5783963.3984           -0.406836029           -0.087019807            0.909347018
TRF    AK            -2483177.6182          -1416999.9251           5683737.3278           -0.390295257           -0.222717999            0.893345569
UNV    AK            -3666851.9604           -880028.6809           5126550.2484           -0.576177598           -0.138280142            0.805542040
VRDI   AK            -2473207.7308          -1833118.6674           5568781.8979           -0.388682710           -0.288088025            0.875174863
WAT1   AK            -2491702.7913          -1523874.2828           5652470.0355           -0.391624259           -0.239509359            0.888406273
WAT6   AK            -2490737.0892          -1572145.9106           5639793.1246           -0.391465287           -0.247091736            0.886397542
WAT7   AK            -2499229.7306          -1510750.9096           5652596.1078           -0.392811319           -0.237449183            0.888435227
WAX    AK            -2514143.2093          -1904682.4908           5526123.3153           -0.395124032           -0.299340874            0.868488365
WRH    AK            -2339880.1427          -1456911.7780           5733068.7729           -0.367832448           -0.229028580            0.901246470
YAH    AK            -2484015.8394          -1958169.8934           5521498.0992           -0.390365409           -0.307728228            0.867708583
PMR    AT            -2611580.0581          -1561092.2957           5587859.0791           -0.410463829           -0.245357947            0.878247644
INK    CN            -1628360.4128          -1714411.0694           5904052.5067           -0.256034680           -0.269564825            0.928321630
KDAK   II            -3025747.6747          -1569504.2638           5373123.9773           -0.475515229           -0.246657441            0.844420141
COLA   IU            -2299667.7825          -1444727.5248           5752153.7444           -0.361523187           -0.227120849            0.904277118
A19K   TA            -2049331.6729           -702790.1163           5978984.8457           -0.322252499           -0.110512063            0.940181052
A21K   TA            -1880469.4697           -813069.9829           6020012.9315           -0.295714422           -0.127859837            0.946680961
A22K   TA            -1886894.9304           -880908.1850           6008562.6204           -0.296719753           -0.138525392            0.944864066
B18K   TA            -2141745.2633           -704103.7400           5946774.9858           -0.336763358           -0.110711738            0.935057940
B20K   TA            -2015621.0994           -848949.5409           5971572.9670           -0.316946916           -0.133493313            0.939001698
B21K   TA            -2012505.5925           -955057.0042           5956723.5692           -0.316450206           -0.150174979            0.936646541
B22K   TA            -1924765.9707           -963027.5976           5984106.5004           -0.302665803           -0.151434266            0.940989413
C16K   TA            -2290749.8312           -599104.1884           5902764.6951           -0.360183054           -0.094199364            0.928113488
C17K   TA            -2246645.4104           -679260.7522           5911266.4808           -0.353236169           -0.106798992            0.929418197
C18K   TA            -2204846.9884           -750835.9154           5918479.3516           -0.346657332           -0.118050267            0.930533626
C19K   TA            -2138355.5987           -795782.6502           5936727.8933           -0.336215391           -0.125121554            0.933436558
C21K   TA            -2059274.4471           -969754.2237           5938615.5174           -0.323790939           -0.152479739            0.933760867
C23K   TA            -1921374.5614          -1082082.3082           5965005.1405           -0.302124323           -0.170150783            0.937960343
C24K   TA            -1894604.9487          -1151897.1031           5960598.5977           -0.297910319           -0.181125904            0.937252820
C26K   TA            -1797463.6703          -1262706.9277           5968319.1528           -0.282632169           -0.198547322            0.938455123
C27K   TA            -1795297.2403          -1318227.0574           5957385.1903           -0.282273672           -0.207264170            0.936676645
D17K   TA            -2322316.8008           -706322.0812           5878732.1407           -0.365135405           -0.111054271            0.924306813
D19K   TA            -2176144.8548           -874138.5012           5912223.5460           -0.342142060           -0.137435496            0.929543057
D20K   TA            -2131620.1812           -921851.4282           5921047.0023           -0.335148755           -0.144940155            0.930949872
D22K   TA            -2047986.0170          -1057854.8026           5927726.4542           -0.322003835           -0.166325991            0.932013517
D23K   TA            -2002011.7137          -1124363.4906           5931156.9902           -0.314776785           -0.176783943            0.932557244
D24K   TA            -1947797.1790          -1178545.5514           5938646.4600           -0.306254370           -0.185304060            0.933740149
D25K   TA            -1881109.8198          -1250985.0902           5945623.9596           -0.295755964           -0.196685115            0.934795900
D27M   TA            -1761149.4552          -1427943.0771           5942399.6745           -0.276899398           -0.224510519            0.934302815
D28M   TA            -1697442.9183          -1489314.6940           5945268.9987           -0.266906757           -0.234180573            0.934837014
E17K   TA            -2366586.7022           -776895.1310           5852249.7742           -0.372088610           -0.122147999            0.920124955
E18K   TA            -2316617.6877           -815687.1650           5867074.5253           -0.364225434           -0.128244731            0.922438682
E19K   TA            -2261276.6392           -949085.9880           5868719.2861           -0.355518507           -0.149215548            0.922681587
E20K   TA            -2168074.1773           -956754.5055           5902621.1203           -0.340861574           -0.150419598            0.928001795
E21K   TA            -2112347.9236          -1031534.5113           5910275.3380           -0.332098028           -0.162175262            0.929198625
E22K   TA            -2100076.1736          -1125428.1169           5897695.3125           -0.330159364           -0.176931978            0.927194623
E23K   TA            -2062242.4506          -1209121.9621           5894751.1160           -0.324198621           -0.190082244            0.926695201
E24K   TA            -2036565.5197          -1248654.4306           5895449.1428           -0.320161450           -0.196296662            0.926803251
E25K   TA            -1966337.0121          -1347992.7566           5897102.2561           -0.309135114           -0.211922927            0.927105255
E27K   TA            -1862833.4777          -1476723.0296           5899574.5389           -0.292875759           -0.232171250            0.927534528
E28M   TA            -1775511.6783          -1514560.8001           5916645.9930           -0.279156647           -0.238128377            0.930250742
E29M   TA            -1748069.4714          -1579673.7804           5907804.2100           -0.274841234           -0.248365124            0.928857934
EPYK   TA            -1866568.3279          -1757790.5817           5821311.0440           -0.293442181           -0.276341291            0.915165109
F14K   TA            -2579760.0581           -627504.0943           5780125.0605           -0.405576685           -0.098652985            0.908721707
F15K   TA            -2537404.5119           -696616.8749           5790928.1332           -0.398918866           -0.109518846            0.910422628
F17K   TA            -2420730.8970           -821717.9889           5824021.7311           -0.380595542           -0.129193296            0.915672499
F18K   TA            -2381720.9618           -883322.7438           5831096.7035           -0.374461551           -0.138878739            0.916783095
F19K   TA            -2329403.7047           -951902.2958           5841431.2107           -0.366235999           -0.149661000            0.918407741
F20K   TA            -2273896.6577          -1025504.7213           5851205.4389           -0.357489955           -0.161224405            0.919895441
F21K   TA            -2216104.2952          -1105729.9475           5858785.3749           -0.348403062           -0.173836448            0.921084250
F22K   TA            -2164414.8833          -1142180.5302           5871153.7327           -0.340274266           -0.179565685            0.923021987
F24K   TA            -2071906.0164          -1300354.3336           5871649.7398           -0.325729569           -0.204431983            0.923096860
F25K   TA            -2012989.9657          -1376105.1211           5874651.0757           -0.316477660           -0.216348087            0.923599153
F26K   TA            -1967862.3780          -1422114.5627           5878924.2467           -0.309385392           -0.223583456            0.924278701
F28M   TA            -1862758.4559          -1570161.4116           5875358.9129           -0.292866573           -0.246863887            0.923735564
F30M   TA            -1746414.9056          -1699126.9607           5875337.3212           -0.274569829           -0.267135260            0.923715412
F31M   TA            -1696657.4907          -1772847.0147           5867689.9175           -0.266764050           -0.278743266            0.922572020
G15K   TA            -2599383.1005           -743466.2903           5757759.1815           -0.408648810           -0.116880276            0.905176862
G16K   TA            -2537897.2234           -807277.4384           5776481.6401           -0.398987384           -0.126913537            0.908131060
G17K   TA            -2502478.0656           -878739.0586           5781426.7102           -0.393423380           -0.138149659            0.908918432
G18K   TA            -2433067.7984           -950864.5258           5799555.1243           -0.382514323           -0.149489998            0.911776032
G19K   TA            -2382834.7238          -1007185.9754           5810790.3224           -0.374622462           -0.158346899            0.913555839
G21K   TA            -2281284.7343          -1137118.2874           5827548.1676           -0.358657033           -0.178774471            0.916190385
G22K   TA            -2203729.0029          -1196163.7000           5845496.1038           -0.346466350           -0.188058727            0.919018489
G23K   TA            -2190792.6460          -1263636.5460           5836423.0684           -0.344419195           -0.198659003            0.917556548
G24K   TA            -2133234.6640          -1360308.3510           5835686.0491           -0.335386229           -0.213867089            0.917484030
G25K   TA            -2094453.7525          -1407345.5347           5838467.3182           -0.329294410           -0.221265815            0.917936071
G26K   TA            -2020608.7721          -1479685.4116           5846599.6854           -0.317684355           -0.232639248            0.919214682
G27K   TA            -1975627.3511          -1562783.0709           5840617.4556           -0.310600189           -0.245694471            0.918238395
G29M   TA            -1864816.9964          -1677774.9953           5845160.0105           -0.293178450           -0.263772517            0.918950736
G30M   TA            -1806088.7264          -1730670.2643           5848314.0746           -0.283939878           -0.272083147            0.919428576
G31M   TA            -1750156.5365          -1795281.5539           5845331.4056           -0.275166938           -0.282261682            0.919027475
H16K   TA            -2608944.0660           -835681.8181           5740782.5436           -0.410150814           -0.131377128            0.902505601
H17K   TA            -2544650.5022           -930575.3595           5755244.8346           -0.400030786           -0.146290735            0.904751011
H18K   TA            -2498255.9475           -990981.0443           5765310.0056           -0.392746734           -0.155790510            0.906354963
H19K   TA            -2428865.0295          -1058652.1133           5782572.3379           -0.381856084           -0.166436894            0.909112035
H20K   TA            -2402282.0922          -1126292.9722           5781120.1103           -0.377664819           -0.177065480            0.908854829
H21K   TA            -2345055.4357          -1204936.1045           5788760.7767           -0.368667883           -0.189428888            0.910055322
H22K   TA            -2293237.4627          -1251492.5452           5799716.0331           -0.360517218           -0.196745700            0.911766672
H23K   TA            -2257966.1066          -1327751.5220           5796435.2924           -0.354980498           -0.208739137            0.911272088
H24K   TA            -2217420.6657          -1392166.7204           5797043.0989           -0.348602827           -0.218863864            0.911358699
H25K   TA            -2129690.9881          -1446266.3055           5816367.4312           -0.334824792           -0.227378440            0.914435019
H25L   TA            -2129665.7417          -1446303.4727           5816367.4204           -0.334820824           -0.227384284            0.914435019
H27K   TA            -2018436.1682          -1604012.9576           5814936.5158           -0.317321705           -0.252169543            0.914175835
H29M   TA            -1927941.1979          -1713578.5796           5814584.0665           -0.303086346           -0.269386987            0.914094808
H31M   TA            -1832307.0868          -1874844.0437           5795714.0170           -0.288051992           -0.294739111            0.911128370
HARP   TA            -2431966.5426          -1692981.6146           5630048.4179           -0.382250069           -0.266098373            0.884916121
I17K   TA            -2656722.3091           -930631.2042           5704441.3367           -0.417644660           -0.146297997            0.896755169
I20K   TA            -2457852.0978          -1173478.1784           5748442.6129           -0.386392262           -0.184479322            0.903697073
I21K   TA            -2370194.5667          -1261199.4828           5766573.0672           -0.372615861           -0.198271880            0.906557048
I23K   TA            -2312811.1748          -1369956.6304           5765061.0705           -0.363594702           -0.215369494            0.906319411
I26K   TA            -2138445.1568          -1602434.8352           5772822.1622           -0.336164457           -0.251903414            0.907490015
I27K   TA            -2070980.5928          -1640538.7470           5786474.7057           -0.325569472           -0.257901661            0.909665462
I28M   TA            -2034207.6549          -1710808.9182           5779738.9892           -0.319762357           -0.268926474            0.908532105
I29M   TA            -1991346.2553          -1773832.0577           5775634.6350           -0.313026237           -0.278834468            0.907890916
I30M   TA            -1940644.7742          -1849556.4857           5769201.1804           -0.305053486           -0.290735152            0.906871238
J14K   TA            -2808407.3420           -829009.8531           5647410.6163           -0.441474960           -0.130318379            0.887759528
J16K   TA            -2711952.8307           -954917.6264           5674651.4967           -0.426309540           -0.150109725            0.892035452
J17K   TA            -2675083.2709          -1022708.1326           5680147.9180           -0.420524906           -0.160770413            0.892923109
J18K   TA            -2624434.6086          -1129423.9739           5683675.8925           -0.412556049           -0.177543266            0.893462867
J19K   TA            -2554233.7384          -1157501.6903           5709791.9483           -0.401529453           -0.181961037            0.897588034
J20K   TA            -2507122.0866          -1214868.7820           5718715.0760           -0.394125255           -0.190980117            0.898994927
J25K   TA            -2256431.2586          -1558369.4615           5740087.2054           -0.354701500           -0.244969123            0.902317558
J26L   TA            -2215389.6431          -1635499.5885           5735091.1983           -0.348226343           -0.257076240            0.901471143
J29M   TA            -2056979.6596          -1838131.6317           5732906.9244           -0.323318523           -0.288919728            0.901105168
J29N   TA            -2057036.4484          -1838143.6363           5732882.9692           -0.323327437           -0.288921604            0.901101368
J30M   TA            -1986506.5280          -1896331.3674           5738833.3948           -0.312240027           -0.298066253            0.902032524
K13K   TA            -2901508.6793           -796185.6407           5605177.9116           -0.456093207           -0.125153809            0.881087686
K15K   TA            -2820145.0276           -941921.9060           5624080.8250           -0.443303313           -0.148062280            0.884058671
K17K   TA            -2723807.2096          -1083857.4421           5645801.8175           -0.428169169           -0.170377088            0.887492428
K20K   TA            -2579227.4064          -1254074.8614           5678341.3339           -0.405443298           -0.197135098            0.892610489
K24K   TA            -2334769.9267          -1587995.0402           5701057.8903           -0.366987257           -0.249606583            0.896112106
K27K   TA            -2209504.8759          -1721551.9008           5712058.7895           -0.347304832           -0.270605103            0.897859806
K29M   TA            -2079538.3913          -1904204.2062           5703014.4288           -0.326869451           -0.299309783            0.896420669
L14K   TA            -2927760.3771           -912854.4612           5573869.0734           -0.460206015           -0.143488899            0.876140034
L15K   TA            -2876841.8805           -963309.2783           5591781.8556           -0.452207272           -0.151421412            0.878965380
L16K   TA            -2838283.6113          -1062619.4883           5593550.5404           -0.446142963           -0.167030598            0.879236735
L17K   TA            -2777159.1058          -1105323.0478           5615864.5629           -0.436537836           -0.173744216            0.882750058
L18K   TA            -2737351.3063          -1179535.4381           5620328.9153           -0.430279404           -0.185409087            0.883449549
L19K   TA            -2701667.7096          -1268182.3563           5618551.3024           -0.424655041           -0.199336147            0.883138266
L20K   TA            -2653465.5528          -1301079.5745           5634118.6556           -0.417070430           -0.204503057            0.885568041
L26K   TA            -2327602.9593          -1731922.9472           5662319.5107           -0.365841680           -0.272215499            0.889976734
L27K   TA            -2277886.2004          -1790750.0187           5663900.3202           -0.358044403           -0.281475001            0.890267392
L29M   TA            -2154170.1315          -1930859.1151           5666377.2992           -0.338593438           -0.303493311            0.890643753
M11K   TA            -3068688.6353           -753679.7537           5521971.7405           -0.482334549           -0.118462910            0.867940045
M13K   TA            -3024737.3127           -904588.2689           5523527.8330           -0.475428537           -0.142183282            0.868188701
M14K   TA            -2970714.6459           -967537.1237           5542030.9572           -0.466944717           -0.152080022            0.871110956
M15K   TA            -2953777.3442          -1035069.5176           5539040.4909           -0.464272383           -0.162691407            0.870621996
M16K   TA            -2891534.0737          -1112313.2384           5557015.4560           -0.454480660           -0.174829292            0.873431192
M17K   TA            -2826779.3685          -1174504.5762           5577214.0822           -0.444320160           -0.184611529            0.876640279
M18K   TA            -2784573.9454          -1250023.7513           5581999.2580           -0.437688005           -0.196482626            0.877396027
M19K   TA            -2716165.1757          -1301863.7885           5604356.7820           -0.426903184           -0.204615611            0.880843984
M20K   TA            -2688931.3695          -1362296.7580           5603579.4025           -0.422596250           -0.214100481            0.880666449
M22K   TA            -2624226.2687          -1507747.8998           5595853.9500           -0.412492610           -0.236997425            0.879591989
M23K   TA            -2556143.0203          -1614291.0188           5599047.1488           -0.401713030           -0.253695404            0.879923453
M24K   TA            -2485631.0145          -1665555.9999           5614974.7057           -0.390673877           -0.261780295            0.882521954
M26K   TA            -2366483.6597          -1783512.9572           5630835.9507           -0.371914537           -0.280295362            0.884937335
M27K   TA            -2334499.2940          -1831929.1931           5628357.6586           -0.366902471           -0.287915849            0.884582975
M29M   TA            -2214822.1542          -1962101.7674           5632632.0586           -0.348103845           -0.308383754            0.885281409
M30M   TA            -2147104.2929          -2016723.5670           5639300.0539           -0.337472662           -0.316979977            0.886361042
M31M   TA            -2086573.9855          -2131438.6131           5620189.4935           -0.327940881           -0.334992126            0.883309150
N14K   TA            -3042139.3776          -1006963.2404           5496412.2054           -0.478149274           -0.158269784            0.863900427
N15K   TA            -2990937.9793          -1083170.8908           5510399.3142           -0.470076503           -0.170238630            0.866052475
N16K   TA            -2937529.0566          -1141221.2842           5527214.5602           -0.461693256           -0.179366454            0.868715726
N17K   TA            -2900101.3997          -1219882.6051           5529945.9143           -0.455825143           -0.191735766            0.869172500
N18K   TA            -2858207.5575          -1279154.7064           5538395.4205           -0.449238192           -0.201050881            0.870496175
N19K   TA            -2814407.5138          -1343380.4487           5545884.2435           -0.442337638           -0.211137773            0.871641127
N20K   TA            -2725620.3790          -1436515.5723           5567023.0976           -0.428372805           -0.225770327            0.874942569
N25K   TA            -2479021.1938          -1761865.8783           5588791.8519           -0.389616068           -0.276904150            0.878364054
N30M   TA            -2238109.5905          -2080617.0564           5581198.7180           -0.351737623           -0.326986355            0.877132013
N31M   TA            -2188026.2794          -2129278.8665           5582414.4416           -0.343880382           -0.334647366            0.877358207
N32M   TA            -2107847.7340          -2253929.8569           5564744.7195           -0.331258829           -0.354216366            0.874527504
O14K   TA            -3095685.4912          -1050012.1630           5458671.1147           -0.486542863           -0.165028368            0.857928715
O15K   TA            -3075241.3596          -1129969.6511           5454345.3987           -0.483324088           -0.177593069            0.857238898
O16K   TA            -3002570.7458          -1207439.6599           5477966.7076           -0.471916498           -0.189774278            0.860976505
O17K   TA            -2965167.8339          -1252865.2712           5488058.1362           -0.466042383           -0.196915773            0.862570969
O18K   TA            -2915282.2919          -1346555.6076           5492666.8968           -0.458197235           -0.211639215            0.863286822
O19K   TA            -2864530.6720          -1377368.0567           5511890.2407           -0.450208661           -0.216476310            0.866285270
O20K   TA            -2832153.2220          -1466544.0366           5505366.2441           -0.445134916           -0.230499520            0.865288898
O22K   TA            -2721080.2153          -1588535.8905           5527793.7691           -0.427659787           -0.249662952            0.868778175
O28M   TA            -2399386.4882          -1999760.4491           5545169.0026           -0.377003957           -0.314212657            0.871285500
O29M   TA            -2375936.2831          -2096475.9056           5518758.1089           -0.373356309           -0.329441708            0.867221556
O30N   TA            -2249942.8277          -2165879.4375           5544049.3603           -0.353589111           -0.340378154            0.871273466
P08K   TA            -3460656.9188           -638371.5489           5301586.7603           -0.543853650           -0.100322195            0.833161848
P16K   TA            -3050319.3392          -1232991.1772           5445925.6582           -0.479413126           -0.193786974            0.855926202
P17K   TA            -3001481.7557          -1308857.9156           5455335.1944           -0.471738215           -0.205711161            0.857406540
P18K   TA            -2956108.7588          -1364086.2470           5466655.3718           -0.464601575           -0.214388803            0.859175661
P19K   TA            -2884452.0825          -1455026.4321           5481333.0275           -0.453347679           -0.228685669            0.861497967
P23K   TA            -2693636.2240          -1722446.8937           5500476.8862           -0.423380437           -0.270730811            0.864554124
P29M   TA            -2392819.8317          -2174391.6928           5480810.1144           -0.376028577           -0.341702874            0.861302302
P30M   TA            -2328509.8233          -2174426.9433           5508435.2117           -0.365921874           -0.341707977            0.865642444
P32M   TA            -2237082.4651          -2339770.9477           5478587.3074           -0.351549703           -0.367686840            0.860940877
P33M   TA            -2159423.9633          -2330545.6541           5513287.3815           -0.339358898           -0.366251101            0.866426955
POKR   TA            -2268120.2832          -1448655.6151           5763750.3468           -0.356560146           -0.227736096            0.906091128
Q16K   TA            -3051761.6088          -1317100.6439           5425548.0155           -0.479629423           -0.207001825            0.852705026
Q17K   TA            -3069736.8410          -1374027.7571           5401589.6381           -0.482431659           -0.215938540            0.848899429
Q18K   TA            -3015342.8608          -1405526.4944           5424222.1098           -0.473874026           -0.220884499            0.852439702
Q19K   TA            -2956939.5147          -1464969.7121           5440105.5581           -0.464727868           -0.230242197            0.854995052
Q20K   TA            -2951108.7275          -1543182.7644           5421526.6057           -0.463817025           -0.242537468            0.852085292
Q23K   TA            -2706346.0452          -1802186.7901           5467797.6425           -0.425424116           -0.283294785            0.859510550
Q32M   TA            -2217904.0497          -2440087.0718           5442726.8137           -0.348525496           -0.383439742            0.855280038
R16K   TA            -3169530.7439          -1308056.2982           5360237.3621           -0.498110858           -0.205568931            0.842393606
R17K   TA            -3135545.3887          -1370720.3695           5364609.2410           -0.492766992           -0.215415715            0.843075774
R17L   TA            -3135614.8576          -1372530.6693           5364106.8030           -0.492777841           -0.215700183            0.842996697
R18K   TA            -3093631.7764          -1478742.7494           5360140.6993           -0.486187291           -0.232395444            0.842386061
R31K   TA            -2398507.2442          -2337354.6536           5410343.6911           -0.376945447           -0.367334806            0.850280701
R32K   TA            -2357390.0143          -2397382.1174           5402353.6907           -0.370473139           -0.376758055            0.849001190
R33M   TA            -2134722.4240          -2458549.7090           5467744.3287           -0.335448649           -0.386334621            0.859197163
S12K   TA            -3427095.3838          -1109498.3252           5246073.9884           -0.538534292           -0.174346736            0.824368868
S14K   TA            -3325032.6153          -1239661.0517           5282435.9565           -0.522499556           -0.194801803            0.830088231
S31K   TA            -2449264.6908          -2346135.9041           5383584.5127           -0.384930243           -0.368722363            0.846092505
S32K   TA            -2413072.6144          -2449028.3119           5354386.2436           -0.379224080           -0.384874663            0.841463363
S34M   TA            -2234413.1258          -2558542.0257           5381684.0002           -0.351098679           -0.402029829            0.845636881
T33K   TA            -2384483.4387          -2561308.2705           5315000.0581           -0.374707228           -0.402494186            0.835220285
T35M   TA            -2251342.8592          -2659431.2402           5325940.8664           -0.353734857           -0.417854404            0.836820977
TCOL   TA            -2299681.3734          -1444724.8675           5752149.0105           -0.361525322           -0.227120430            0.904276369
TOLK   TA            -2009156.4670          -1180066.4386           5918464.2448           -0.315874317           -0.185526954            0.930485446
U33K   TA            -2436335.7422          -2601613.2072           5271790.0278           -0.382852639           -0.408824804            0.828423887
U35K   TA            -2304440.0817          -2743824.3499           5260099.3988           -0.362073577           -0.431109624            0.826466707
V35K   TA            -2415184.2972          -2718853.5359           5222454.2491           -0.379512840           -0.427230265            0.820636524
EGAK   US            -2123012.0749          -1709503.2215           5747998.4276           -0.333726632           -0.268725157            0.903555934
WRAK   US            -2382033.3844          -2613547.0752           5290787.4764           -0.374313636           -0.410693786            0.831396365
EP14   XO            -2977739.7856          -1331782.8484           5462809.0630           -0.468005693           -0.209313775            0.858579300
EP15   XO            -2989719.5971          -1388625.2570           5442474.2162           -0.469863199           -0.218235819            0.855337186
EP16   XO            -3018193.0093          -1290065.1929           5450584.6761           -0.474365009           -0.202757672            0.856660472
EP21   XO            -3108848.7980          -1295559.6779           5398372.9218           -0.488593844           -0.203613146            0.848420734
EP22   XO            -3098607.6935          -1393447.1600           5380167.6747           -0.486963744           -0.218988111            0.845523814
ET17   XO            -3048641.5002          -1340481.8164           5421685.6571           -0.479131906           -0.210673379            0.852085292
ET18   XO            -3042980.0722          -1368335.5852           5418089.1307           -0.478230460           -0.215045692            0.851499253
ET19   XO            -3049937.7562          -1393834.3799           5407832.6935           -0.479313329           -0.219048207            0.849868587
KD01   XO            -3033625.5412          -1583413.8167           5364592.2153           -0.476753409           -0.248843479            0.843079540
KD02   XO            -3021163.5110          -1562177.8441           5377821.3475           -0.474795754           -0.245506542            0.845160062
KD04   XO            -3073030.4912          -1575954.9562           5344523.5755           -0.482933325           -0.247664697            0.839903329
KD05   XO            -3040581.8410          -1521952.9027           5378407.9802           -0.477847709           -0.239185046            0.845252673
KD12   XO            -3119220.2784          -1480300.8389           5344912.0238           -0.490205299           -0.232638689            0.839986908
KS03   XO            -3030222.9436          -1595270.1954           5362947.3225           -0.476222143           -0.250708613            0.842827184
KS11   XO            -3094283.4252          -1570641.3230           5333866.6379           -0.486269938           -0.246827958            0.838222826
KS13   XO            -3138630.5666          -1519105.1641           5322896.2030           -0.493237500           -0.238728203            0.836496033
KT06   XO            -3074808.2256          -1499418.4576           5365303.3469           -0.483224045           -0.235642355            0.843188711
KT07   XO            -3083879.0531          -1505347.7835           5358509.3146           -0.484644655           -0.236571780            0.842112434
KT08   XO            -3087481.6200          -1518232.1120           5352897.3066           -0.485204360           -0.238593433            0.841219295
KT09   XO            -3094933.6429          -1523265.1936           5347210.0201           -0.486372308           -0.239382841            0.840320078
KT10   XO            -3095817.7767          -1532738.5874           5344030.2416           -0.486508677           -0.240870321            0.839815929
WP24   XO            -3249873.9264          -1269667.7200           5321496.0525           -0.510718505           -0.199528602            0.836274444
WP25   XO            -3314736.4395          -1222456.7710           5292748.0590           -0.520892348           -0.192102265            0.831725845
WP30   XO            -3384051.2870          -1151932.7583           5264668.9350           -0.531781961           -0.181018847            0.827308965
WS26   XO            -3348210.0525          -1275672.0051           5259247.3377           -0.526136482           -0.200458624            0.826436170
WS28   XO            -3486532.1932          -1112747.9970           5206336.3830           -0.547855318           -0.174851364            0.818096297
F1TN   XV            -2350752.5260          -1403582.8306           5741660.0465           -0.369555147           -0.220653282            0.902630114
F2TN   XV            -2345368.9485          -1401856.9704           5744254.7120           -0.368710275           -0.220382840            0.903041603
F3TN   XV            -2340286.3043          -1398054.0713           5747229.4206           -0.367912514           -0.219785753            0.903512371
F4TN   XV            -2335056.5413          -1394575.9980           5750185.2950           -0.367091164           -0.219239456            0.903979058
F5MN   XV            -2331254.1908          -1390732.3411           5752650.8462           -0.366493800           -0.218635437            0.904367647
F6TP   XV            -2341759.2176          -1376111.4653           5751919.1684           -0.368144287           -0.216336321            0.904250175
F7TV   XV            -2349543.1832          -1366061.7618           5751154.4757           -0.369367250           -0.214755992            0.904128143
F8KN   XV            -2359757.2387          -1366214.6814           5746944.2933           -0.370972479           -0.214779741            0.903465042
FAPT   XV            -2357931.3269          -1412137.5692           5736693.6995           -0.370679652           -0.221995720            0.901839507
FNN1   XV            -2359351.7219          -1405462.6379           5737719.8610           -0.370904469           -0.220947292            0.902004528
FNN2   XV            -2364569.2949          -1395863.4923           5737899.5674           -0.371725533           -0.219438737            0.902034793
FPAP   XV            -2352857.9417          -1408201.0484           5739695.3405           -0.369884620           -0.221378393            0.902317558
FTGH   XV            -2339378.0491          -1415221.1969           5743449.5261           -0.367766948           -0.222482886            0.902911312
DEN1   YG            -2400940.6717          -1625045.7422           5663463.7223           -0.377364099           -0.255414026            0.890146062
DEN3   YG            -2426679.3327          -1585985.0857           5663583.8105           -0.381408629           -0.249274138            0.890162829
DEN4   YG            -2435904.2692          -1549243.4538           5669757.1401           -0.382860300           -0.243500461            0.891137204
DEN5   YG            -2440327.4118          -1518662.7662           5676085.1085           -0.383557654           -0.238695318            0.892136801
GLN1   YG            -2482651.5280          -1671822.2852           5614401.8392           -0.390207139           -0.262766233            0.882435434
GLN2   YG            -2498520.6426          -1654581.4749           5612643.1220           -0.392691877           -0.260050165            0.882137745
GLN3   YG            -2518031.3276          -1638123.1053           5609025.0160           -0.395743300           -0.257453605            0.881535525
GLN4   YG            -2555112.3735          -1616548.5899           5598869.9904           -0.401550848           -0.254050062            0.879895154
LKLO   YG            -2484216.5477          -1642677.5441           5622322.8593           -0.390452254           -0.258184879            0.883678451
MCR1   YG            -2479295.3502          -1742788.2744           5594524.2685           -0.389665863           -0.273910527            0.879280125
MCR2   YG            -2470271.8951          -1792170.0713           5583263.2404           -0.388228356           -0.281657756            0.877466610
MCR3   YG            -2466012.5679          -1811598.8516           5578988.8069           -0.387552836           -0.284706689            0.876780988
MCR4   YG            -2462989.8834          -1824732.8659           5576092.2588           -0.387075171           -0.286768854            0.876319825
NEB1   YG            -2370892.3601          -1740733.6665           5642058.4705           -0.372622907           -0.273583588            0.886737949
NEB2   YG            -2367418.3065          -1755047.8473           5639154.9302           -0.372073125           -0.275830484            0.886272607
NEB3   YG            -2363487.3411          -1768140.1654           5636773.1490           -0.371452231           -0.277885816            0.885890915
RH01   YG            -2350363.7417          -1592776.0565           5693516.7766           -0.369427674           -0.250350847            0.894900914
RH02   YG            -2377598.3687          -1626397.4094           5672951.8286           -0.373693399           -0.255625165            0.891632782
RH03   YG            -2405837.7212          -1655279.9719           5652499.7442           -0.378140094           -0.260170384            0.888437640
RH04   YG            -2422071.7131          -1667371.3605           5641915.8820           -0.380696330           -0.262074056            0.886784920
RH05   YG            -2437802.0499          -1682468.0865           5630629.1835           -0.383169790           -0.264447617            0.885013203
RH06   YG            -2449740.5219          -1689640.9797           5623318.9063           -0.385044985           -0.265574161            0.883861259
RH07   YG            -2474999.2770          -1708554.5953           5606719.3096           -0.389004286           -0.268539497            0.881227669
RH08   YG            -2479363.1870          -1721816.4643           5600837.4453           -0.389684439           -0.270619926            0.880290233
RH09   YG            -2489242.1635          -1731060.8080           5593704.6344           -0.391231544           -0.272068987            0.879156610
RH10   YG            -2500779.9554          -1736430.7615           5586970.6595           -0.393040540           -0.272909930            0.878088437
RH11   YG            -2513671.0182          -1747391.7310           5577858.7961           -0.395061248           -0.274628920            0.876644493
RH12   YG            -2531506.3747          -1749422.8113           5569242.1129           -0.397859263           -0.274944625            0.875279076
RH13   YG            -2541967.8317          -1742210.0180           5566745.5265           -0.399502975           -0.273810737            0.874885737
RH14   YG            -2563522.2239          -1733241.3359           5559510.3885           -0.402898609           -0.272406658            0.873766172
RH15   YG            -2568610.4827          -1718742.9119           5561609.1961           -0.403701270           -0.270129979            0.874102442
TOK1   YG            -2415386.0967          -1702106.6158           5634582.4653           -0.379636105           -0.267527054            0.885610356
TOK2   YG            -2389861.7839          -1707782.6453           5643900.8798           -0.375615986           -0.268413206            0.887055230
TOK3   YG            -2373933.2519          -1720374.0350           5646881.8433           -0.373108147           -0.270389055            0.887513420
TOK4   YG            -2353364.9397          -1728282.1109           5652982.1840           -0.369880144           -0.271635404            0.888483476
TOK5   YG            -2304072.0500          -1733275.0686           5671302.9850           -0.362154327           -0.272436387            0.891416097
BING   ZE            -2744656.6333          -1539996.4188           5529398.5393           -0.431393160           -0.242049921            0.869086749
BULG   ZE            -2703035.9077          -1492697.7030           5562423.9379           -0.424871694           -0.234626924            0.874319307
CLAM   ZE            -2786699.0532          -1519774.1001           5513901.7952           -0.438003689           -0.238872820            0.866655955
CONG   ZE            -2716486.9414          -1481876.4289           5558834.5842           -0.426981796           -0.232923725            0.873746579
GOOS   ZE            -2647658.6603          -1537666.2286           5576824.0606           -0.416165418           -0.241694112            0.876578748
HARR   ZE            -2795315.0901          -1471159.8677           5522787.2406           -0.439353810           -0.231229637            0.868044402
HLC1   ZE            -2799795.0476          -1453229.3136           5525553.7915           -0.440040578           -0.228402385            0.868444955
HLC2   ZE            -2801446.6678          -1422318.7629           5533203.4720           -0.440273178           -0.223530510            0.869593951
HLC3   ZE            -2804052.4437          -1411714.3610           5534650.2009           -0.440679621           -0.221862380            0.869815242
HLC4   ZE            -2808989.3458          -1387685.1424           5538123.2353           -0.441461494           -0.218088957            0.870372884
HLC5   ZE            -2810176.7756          -1368587.5133           5542092.4452           -0.441658944           -0.215092844            0.871018051
HOPE   ZE            -2684658.6651          -1575287.7398           5549092.2884           -0.421950581           -0.247589604            0.872156577
JOES   ZE            -2690487.4029          -1461162.0551           5577027.0200           -0.422889680           -0.229664838            0.876594764
JUDD   ZE            -2677139.0607          -1450665.2587           5586206.6487           -0.420790239           -0.228014222            0.878034788
KALN   ZE            -2777218.6697          -1483700.3184           5528378.1775           -0.436520295           -0.233206448            0.868944638
KALS   ZE            -2794037.1795          -1481040.2360           5520688.2699           -0.439159213           -0.232785902            0.867726863
LTUW   ZE            -2785379.4762          -1563043.7088           5502946.2938           -0.437767384           -0.245657571            0.864876913
LTUX   ZE            -2779798.9565          -1548169.5931           5509771.2032           -0.436902037           -0.243326392            0.865972792
LTUY   ZE            -2780686.8964          -1534052.9571           5513100.6186           -0.437051709           -0.241113254            0.866516129
MPEN   ZE            -2720229.0029          -1540166.1274           5541285.1522           -0.427561012           -0.242080717            0.870969866
NNIL   ZE            -2809618.6593          -1516044.9532           5503311.3789           -0.441604654           -0.238285899            0.864988532
NSKI   ZE            -2747496.1507          -1505631.5516           5537187.3630           -0.431854783           -0.236656996            0.870341837
SALA   ZE            -2752126.8649          -1480969.3448           5541589.4961           -0.432579538           -0.232778889            0.871027515
SOLD   ZE            -2759192.1565          -1524305.9339           5526408.2000           -0.433683896           -0.239587132            0.868628968
WFLS   ZE            -2812429.3098          -1326049.7659           5550935.1230           -0.442034071           -0.208417390            0.872449466
WFLW   ZE            -2816895.3683          -1304930.9086           5553550.2350           -0.442743571           -0.205101608            0.872875398
WHIP   ZE            -2704679.6649          -1522019.1079           5553696.9977           -0.425128621           -0.239234942            0.872944613
